{
    "code":0,
    "message":"ok",
    "data":{
        "pager":{
            "page":2,
            "pages":22,
            "total":220,
            "pagesize":10
        },
        "list":[
            {"groupId":"1","groupName":"金融组","role":"0"},
            {"groupId":"2","groupName":"法务组","role":"0"},
            {"groupId":"3","groupName":"管理组","role":"1"}

        ]
    }
}