{
    "code": 0,
    "message": "ok",
    "data": {
        "pager": {
            "page": 2,
            "pages": 22,
            "total": 220,
            "pagesize": 10
        },
        "list": [
            {
                "frameID":"1",
                "frameName": "马进",
                "framePhoto": "http://www.chuyingfund.com/files/account/headImg/120/2016/20160612131503913_1280x960.jpg",
                "unionPosition": "荣誉主席",
                "frameCompany":"杭州爱理爸爸公司",
                "framePosition":"CEO",
                "top":"",
                "sort":"1"
            },
            {
                "frameID":"2",
                "frameName": "马进2",
                "framePhoto": "http://www.chuyingfund.com/files/default/201606/png/20160608222324392_326x326.png",
                "unionPosition": "荣誉主席",
                "frameCompany":"杭州爱理爸爸公司",
                "framePosition":"CEO",
                "top":"",
                "sort":"1"
            },
            {
                "frameID":"3",
                "frameName": "马进3",
                "framePhoto": "http://www.chuyingfund.com/files/account/headImg/120/2016/20160612131503913_1280x960.jpg",
                "unionPosition": "荣誉主席",
                "frameCompany":"杭州爱理爸爸公司",
                "framePosition":"CEO",
                "top":"",
                "sort":"1"
            }
        ]
    }
}