{
    "code": 0,
    "message": "ok",
    "data": {
        "pager": {
            "page": 2,
            "pages": 22,
            "total": 220,
            "pagesize": 10
        },
        "list": [
            {
                "unionId":"1",
                "sociatyId": "1",
                "sociatyName": "杭州新春商会",
                "sociatyPeopleNumber": "230",
                "sociatySite":"http://www.aaa.com",
                "sociatyJointime":"2014-12-12"
            },
            {
                "unionId":"1",
                "sociatyId": "2",
                "sociatyName": "杭州新春商会2",
                "sociatyPeopleNumber": "430",
                "sociatySite":"http://www.bbb.com",
                "sociatyJointime":"2014-12-12"
            },
            {
                "unionId":"1",
                "sociatyId": "3",
                "sociatyName": "杭州新春商会33",
                "sociatyPeopleNumber": "306",
                "sociatySite":"http://www.ssssssss.com",
                "sociatyJointime":"2014-12-12"
            }
        ]
    }
}