{
    "status": 0,
    "data": {
        "page": {
            "total_count": "120",
            "current_page": "1",
            "per_page": "9",
            "total_page": 14
        },
        "list": [
            {
                "id": "GQ14615559290138669",
                "update_time": "1462802280",
                "province_name": "陕西省",
                "subsite_id": "13",
                "is_open": "1",
                "industry": "1,2",
                "type": "0",
                "open_flag": "1",
                "project_name": "Bikernel",
                "step": "0",
                "seo_string": null,
                "abstract": "Bikernel是专注于自行车整车及零件数据整合，智能在线组装，整车及组装车销售，优质内容推送的应用。",
                "cover": "http://7xjckn.com2.z0.glb.qiniucdn.com/2016-05-03_57284491aee9a.png",
                "project_phase": "1",
                "member_count": "7",
                "province": "27",
                "city": "438",
                "address": "",
                "company_name": "西安领驾信息科技有限公司",
                "project_url": "www.lincatech.com",
                "uid": "18427",
                "over_time": "0",
                "vote_leader_step": "0",
                "stage": "4",
                "is_agree": "0",
                "is_del": "0",
                "agreement_id": "XY201602261720550133122",
                "barcode": "/Uploads/Picture/2016-05-03/572821d361131.jpg",
                "sort": "1",
                "display_subsite_id": "1",
                "need_fund": "960000.00",
                "real_fund": "0.00",
                "project_valuation": "8000000.00",
                "final_valuation": "8000000.00",
                "min_lead_fund": "96000.00",
                "min_follow_fund": "6000.00",
                "total_fund": "474000.00",
                "agree_total_fund": "12000.00",
                "leader_flag": "0",
                "leader_id": "d5d8fce02260a86329e849cc0a2e93bb",
                "read_cnt": "4837",
                "follow_cnt": "8",
                "inverstor_cnt": "29",
                "comment_cnt": "20",
                "nickname": "bikernellinca",
                "short_name": "诚为众筹",
                "site_url": "http://www.zgchengwei.com/",
                "site_logo": "/Public/Home/default/img/subsite_shared_log/zgchengwei.png",
                "lnn": "头狼资本",
                "lpu": "http://7xjckn.com2.z0.glb.qiniucdn.com/2015-09-28_5608af5bda9ed.jpg",
                "industry_name": "PC互联网 移动互联网 ",
                "invest_stage":"0",
                "invest_deadline":"1",
                "invest_fund":"30000.00",
                "is_pay":"0",
                "is_collect":"1",
                "project_news":"专注于自行车整车及零件数据整合，智能在线组装"
            },
            {
                "id": "GQ14652782780154110",
                "update_time": "1465960870",
                "province_name": "北京市",
                "subsite_id": "15",
                "is_open": "1",
                "industry": "5",
                "type": "2",
                "open_flag": "1",
                "project_name": "我的男友不是人1",
                "step": "0",
                "seo_string": null,
                "abstract": "科幻、爱情",
                "cover": "http://7xjckn.com2.z0.glb.qiniucdn.com/2016-06-12_575d27bb550f6.jpg",
                "project_phase": "0",
                "member_count": "10",
                "province": "1",
                "city": "41",
                "address": "",
                "company_name": "杭州捷耐恩文化传媒有限公司",
                "project_url": "",
                "uid": "19032",
                "over_time": "0",
                "vote_leader_step": "0",
                "stage": "4",
                "is_agree": "0",
                "is_del": "0",
                "agreement_id": "XY201606151044330153523",
                "barcode": null,
                "sort": "2",
                "display_subsite_id": "1",
                "need_fund": "200000.00",
                "real_fund": "0.00",
                "project_valuation": "1500000.00",
                "final_valuation": "1500000.00",
                "min_lead_fund": "40000.00",
                "min_follow_fund": "2000.00",
                "total_fund": "64000.00",
                "agree_total_fund": "38000.00",
                "leader_flag": "1",
                "leader_id": null,
                "read_cnt": "2820",
                "follow_cnt": "3",
                "inverstor_cnt": "16",
                "comment_cnt": "1",
                "nickname": "青春梦众筹",
                "short_name": "青春梦",
                "site_url": "http://www.youthm.com/",
                "site_logo": "/Public/Home/default/img/subsite_shared_log/youthm.png",
                "industry_name": "文化创意 ",
                "invest_stage":"0",
                "invest_deadline":"2",
                "invest_fund":"100000.00",
                "is_pay":"0",
                "is_collect":"0",
                "project_news":"专注于自行车整车及零件数据整合，智能在线组装"
            },
            {
                "id": "GQ14657943010010561",
                "update_time": "1466477990",
                "province_name": "浙江省",
                "subsite_id": "1",
                "is_open": "0",
                "industry": "8",
                "type": "0",
                "open_flag": "1",
                "project_name": "紫语堂儿推大关店",
                "step": "0",
                "seo_string": null,
                "abstract": "紫语堂儿推大关分店位于拱墅区上塘路458号水晶城购物中心4F402室，今年二月开业开业至今广受好评。现公司将以大关分店部分分红权在聚募网向客户发起一次众筹，投资者可获得等额消费券",
                "cover": "http://7xjckn.com2.z0.glb.qiniucdn.com/2016-06-20_57674cb217f53.jpg",
                "project_phase": "3",
                "member_count": "8",
                "province": "11",
                "city": "175",
                "address": "",
                "company_name": "杭州玉机健康管理咨询有限公司",
                "project_url": "建设中",
                "uid": "19333",
                "over_time": "0",
                "vote_leader_step": "0",
                "stage": "4",
                "is_agree": "0",
                "is_del": "0",
                "agreement_id": "XY201606201355350011217",
                "barcode": null,
                "sort": "3",
                "display_subsite_id": "1",
                "need_fund": "490000.00",
                "real_fund": "0.00",
                "project_valuation": "1000000.00",
                "final_valuation": "1000000.00",
                "min_lead_fund": "10000.00",
                "min_follow_fund": "10000.00",
                "total_fund": "370000.00",
                "agree_total_fund": "280000.00",
                "leader_flag": "1",
                "leader_id": null,
                "read_cnt": "728",
                "follow_cnt": "0",
                "inverstor_cnt": "37",
                "comment_cnt": "0",
                "nickname": "紫语堂小儿推拿",
                "short_name": "聚募网",
                "site_url": "http://www.dreammove.cn/",
                "site_logo": "/Public/Home/default/img/subsite_shared_log/dreammove.png",
                "industry_name": "生物医药 ",
                "invest_stage":"0",
                "invest_deadline":"1",
                "invest_fund":"10000.00",
                "is_pay":"1",
                "is_collect":"0",
                "project_news":"专注于自行车整车及零件数据整合，智能在线组装"
            },
            {
                "id": "GQ14657108930012589",
                "update_time": "1466651873",
                "province_name": "浙江省",
                "subsite_id": "1",
                "is_open": "0",
                "industry": "2",
                "type": "0",
                "open_flag": "1",
                "project_name": "君财金服",
                "step": "0",
                "seo_string": null,
                "abstract": "君财金服致力于打造纯金融信息服务中介平台，专注于优质资产端，从资产端源头保障客户每一笔理财资金安全。",
                "cover": "http://7xjckn.com2.z0.glb.qiniucdn.com/2016-06-13_575e626fd5670.jpg",
                "project_phase": "2",
                "member_count": "15",
                "province": "11",
                "city": "175",
                "address": "",
                "company_name": "杭州骏风网络科技有限公司",
                "project_url": "www.juncaijinfu.com",
                "uid": "18330",
                "over_time": "0",
                "vote_leader_step": "0",
                "stage": "4",
                "is_agree": "0",
                "is_del": "0",
                "agreement_id": "XY201603101554410015069",
                "barcode": null,
                "sort": "4",
                "display_subsite_id": "1",
                "need_fund": "1500000.00",
                "real_fund": "0.00",
                "project_valuation": "50000000.00",
                "final_valuation": "50000000.00",
                "min_lead_fund": "50000.00",
                "min_follow_fund": "10000.00",
                "total_fund": "1460000.00",
                "agree_total_fund": "450000.00",
                "leader_flag": "1",
                "leader_id": "127f8191f511594ae7cb9a6972814f16",
                "read_cnt": "3521",
                "follow_cnt": "0",
                "inverstor_cnt": "54",
                "comment_cnt": "14",
                "nickname": "君财金服",
                "short_name": "聚募网",
                "site_url": "http://www.dreammove.cn/",
                "site_logo": "/Public/Home/default/img/subsite_shared_log/dreammove.png",
                "lnn": "聚秀资本",
                "lpu": "http://7xjckn.com2.z0.glb.qiniucdn.com/2016-05-30_574c06bb37f2f.png",
                "industry_name": "移动互联网 ",
                "invest_stage":"0",
                "invest_deadline":"1",
                "invest_fund":"30000.00",
                "is_pay":"1",
                "is_collect":"0",
                "project_news":"专注于自行车整车及零件数据整合，智能在线组装"
            },
            {
                "id": "GQ14620246400011076",
                "update_time": "1466733815",
                "province_name": "浙江省",
                "subsite_id": "1",
                "is_open": "0",
                "industry": "9",
                "type": "0",
                "open_flag": "1",
                "project_name": "迪拜通",
                "step": "0",
                "seo_string": null,
                "abstract": "是一站式目的地精选旅行生活平台，立足迪拜，服务全球游客，专注中东碎片化产品。是中东旅行版的“大众点评”，让全世界的游客在中东享受当地人的吃喝玩乐行。",
                "cover": "http://7xjckn.com2.z0.glb.qiniucdn.com/2016-06-22_576a597922c39.jpg",
                "project_phase": "2",
                "member_count": "4",
                "province": "11",
                "city": "175",
                "address": "",
                "company_name": "杭州皇途网络科技有限公司",
                "project_url": "www.dibaitong.com",
                "uid": "18663",
                "over_time": "0",
                "vote_leader_step": "0",
                "stage": "1",
                "is_agree": "0",
                "is_del": "0",
                "agreement_id": null,
                "barcode": null,
                "sort": "0",
                "display_subsite_id": "1",
                "need_fund": "1500000.00",
                "real_fund": "0.00",
                "project_valuation": "15000000.00",
                "final_valuation": "0.00",
                "min_lead_fund": "500000.00",
                "min_follow_fund": "8000.00",
                "total_fund": "0.00",
                "agree_total_fund": "0.00",
                "leader_flag": "1",
                "leader_id": null,
                "read_cnt": "73",
                "follow_cnt": "0",
                "inverstor_cnt": "0",
                "comment_cnt": "0",
                "nickname": "dibaitong",
                "short_name": "聚募网",
                "site_url": "http://www.dreammove.cn/",
                "site_logo": "/Public/Home/default/img/subsite_shared_log/dreammove.png",
                "industry_name": "其他 ",
                "invest_stage":"2",
                "invest_fund":"30000.00",
                "invest_deadline":"1",
                "is_pay":"0",
                "is_collect":"0",
                "project_news":"专注于自行车整车及零件数据整合，智能在线组装"
            },
            {
                "id": "GQ14466217140014070",
                "update_time": "1449066089",
                "province_name": "浙江省",
                "subsite_id": "1",
                "is_open": "0",
                "industry": "2,5,9",
                "type": "0",
                "open_flag": "1",
                "project_name": "逆袭学院",
                "step": "0",
                "seo_string": null,
                "abstract": "逆袭学院立志打造一个集工具与社群的完全开放式健康管家平台。提供强大的后台工具可运用于自营和他营模式，更可深度地分享和重构各类资源。逆袭学院将跨越地域的限制，有效连接彼此，让健康成为一种生活的态度。",
                "cover": "http://7xjckn.com2.z0.glb.qiniucdn.com/2015-11-06_563c176fb0245.jpg",
                "project_phase": "3",
                "member_count": "25",
                "province": "11",
                "city": "175",
                "address": "",
                "company_name": "杭州博雯教育科技有限公司",
                "project_url": "",
                "uid": "10469",
                "over_time": "1448877600",
                "vote_leader_step": "0",
                "stage": "9",
                "is_agree": "0",
                "is_del": "0",
                "agreement_id": "3",
                "barcode": null,
                "sort": "0",
                "display_subsite_id": "1",
                "need_fund": "2000000.00",
                "real_fund": "0.00",
                "project_valuation": "40000000.00",
                "final_valuation": "40000000.00",
                "min_lead_fund": "1000000.00",
                "min_follow_fund": "5000.00",
                "total_fund": "2005000.00",
                "agree_total_fund": "210000.00",
                "leader_flag": "1",
                "leader_id": "d5d8fce02260a86329e849cc0a2e93bb",
                "read_cnt": "7242",
                "follow_cnt": "17",
                "inverstor_cnt": "52",
                "comment_cnt": "9",
                "nickname": "BO HU@逆袭学院",
                "short_name": "聚募网",
                "site_url": "http://www.dreammove.cn/",
                "site_logo": "/Public/Home/default/img/subsite_shared_log/dreammove.png",
                "lnn": "头狼资本",
                "lpu": "http://7xjckn.com2.z0.glb.qiniucdn.com/2015-09-28_5608af5bda9ed.jpg",
                "industry_name": "移动互联网 文化创意 其他 ",
                "invest_stage":"1",
                "invest_fund":"30000.00",
                "invest_deadline":"1",
                "is_pay":"0",
                "is_collect":"0",
                "project_news":"专注于自行车整车及零件数据整合，智能在线组装"
            }
        ],
        "isshow": 0
    },
    "page": {
        "total_count": "120",
        "current_page": "1",
        "per_page": "9",
        "total_page": 14
    }
}