{
    "code":0,
    "message":"ok",
    "data":{
        "pager":{
            "page":2,
            "pages":22,
            "total":220,
            "pagesize":10
        },
        "list":[
            {"positionId":"1","positionName":"会长","role":"0"},
            {"positionId":"2","positionName":"副会长","role":"0"},
            {"positionId":"3","positionName":"理事","role":"1"},
            {"positionId":"4","positionName":"秘书","role":"0"},
            {"positionId":"5","positionName":"普通","role":"1"}

        ]
    }
}