{
    "code":0,
    "message":"ok",
    "data":{
        "pager":{
            "page":2,
            "pages":22,
            "total":220,
            "pagesize":10
        },
        "list":[
            {
                "realName":"李智2222",
                "memberType":"1",
                "userPhone":"13546545456",
                "sociatyName":"杭州新昌商会",
                "helpId":"1",
                "helpUserId":"11",
                "helpSociatyid":"111",
                "helpApplyTime": "2016-12-12 14:00:12",
                "helpContent":"各位新昌同乡，有没有认识杭州浙一医院肝脏科主治医生的，我表哥急需联系一位主治医生，，有认识的请联系我，手机号：15163212312，谢谢大家",
                "helpPhoto":"http://www.chuyingfund.com/files/account/headImg/120/2016/20160612131503913_1280x960.jpg",
                "helpStatus":"0"
            },
            {
                "realName":"李智",
                "memberType":"1",
                "userPhone":"13546545456",
                "sociatyName":"杭州新昌商会",
                "helpId":"2",
                "helpUserId":"11",
                "helpSociatyid":"111",
                "helpApplyTime": "2016-12-12 14:00:12",
                "helpContent":"各位新昌同乡，有没有认识杭州浙一医院肝脏科主治医生的，我表哥急需联系一位主治医生，，有认识的请联系我，手机号：15163212312，谢谢大家",
                "helpPhoto":"http://www.chuyingfund.com/files/account/headImg/120/2016/20160612131503913_1280x960.jpg",
                "helpStatus":"1"
            },
            {
                "realName":"李智",
                "memberType":"2",
                "userPhone":"13546545456",
                "sociatyName":"杭州新昌商会",
                "helpId":"3",
                "helpUserId":"11",
                "helpSociatyid":"111",
                "helpApplyTime": "2016-12-12 14:00:12",
                "helpContent":"各位新昌同乡，有没有认识杭州浙一医院肝脏科主治医生的，我表哥急需联系一位主治医生，，有认识的请联系我，手机号：15163212312，谢谢大家",
                "helpPhoto":"",
                "helpStatus":"2"
            },
            {
                "realName":"李智4",
                "memberType":"3",
                "userPhone":"13546545456",
                "sociatyName":"北京新昌商会",
                "helpId":"4",
                "helpUserId":"11",
                "helpSociatyid":"111",
                "helpApplyTime": "2016-12-12 14:00:12",
                "helpContent":"各位新昌同乡，有没有认识杭州浙一医院肝脏科主治医生的，我表哥急需联系一位主治医生，，有认识的请联系我，手机号：15163212312，谢谢大家",
                "helpPhoto":"http://www.chuyingfund.com/files/account/headImg/120/2016/20160612131503913_1280x960.jpg",
                "helpStatus":"0"
            }
            

        ]
    }
}