{
    "code":0,
    "message":"ok",
    "data":{
        "pager":{
            "page":2,
            "pages":22,
            "total":220,
            "pagesize":10
        },
        "list":[
            {"userId":"1","text":"浙江省绍兴市绍兴县","role":"0"},
            {"userId":"2","text":"浙江省绍兴市新昌县","role":"0"},
            {"userId":"3","text":"浙江省绍兴市嵊州市","role":"1"},
            {"userId":"4","text":"浙江省绍兴市上虞市","role":"0"},
            {"userId":"5","text":"浙江省绍兴市","role":"1"}

        ]
    }
}