{
    "code": 0,
    "message": "ok",
    "data": {
        "pager": {
            "page": 1,
            "pages": 22,
            "total": 220,
            "pagesize": 10
        },
        "list": [
            {
                "activityId": "1",
                "activityTitle":"西湖音乐节",
                "activityCover":"http://7xjckn.com2.z0.glb.qiniucdn.com/2016-10-23_580c4c0a71777.jpg",
                "activityContent":"国内人均可支配收入逐年增加，可以投资理财的资金越来越多。人均可支配收入近11%的复合增长",
                "activityDate": "2016-11-11 14:00:00",
                "activityAddress": "浙江省杭州市西湖区太子湾公园",
                "activityFunds":"100",
                "activityHostunit":"杭州新昌商会",
                "activitySponsor":"杭州树德科技赞助",
                "activityRegisterAuth":"1",
                "activityReadAuth":"1",
                "activityStatus":"0",
                "top":1,
                "activityMemberCount":120,
                "activityClick":1000,
                "activityDeadline":"2016-11-21 14:00:00"

            },
            {
                "activityId": "2",
                "activityTitle":"西湖音乐节2",
                "activityCover":"http://7xjckn.com2.z0.glb.qiniucdn.com/2016-10-23_580c4c0a71777.jpg",
                "activityContent":"国内人均可支配收入逐年增加，可以投资理财的资金越来越多。人均可支配收入近11%的复合增长",
                "activityDate": "2016-11-11 14:00:00",
                "activityAddress": "浙江省杭州市西湖区太子湾公园",
                "activityFunds":"100",
                "activityHostunit":"杭州新昌商会",
                "activitySponsor":"杭州树德科技赞助",
                "activityRegisterAuth":"1",
                "activityReadAuth":"1",
                "activityStatus":"1",
                "top":1,
                "activityMemberCount":20,
                "activityClick":1000,
                "activityDeadline":"2016-11-21 14:00:00"

            },
            {
                "activityId": "3",
                "activityTitle":"西湖音乐节3",
                "activityCover":"http://7xjckn.com2.z0.glb.qiniucdn.com/2016-10-23_580c4c0a71777.jpg",
                "activityContent":"国内人均可支配收入逐年增加，可以投资理财的资金越来越多。人均可支配收入近11%的复合增长",
                "activityDate": "2016-11-11 14:00:00",
                "activityAddress": "浙江省杭州市西湖区太子湾公园",
                "activityFunds":"100",
                "activityHostunit":"杭州新昌商会",
                "activitySponsor":"杭州树德科技赞助",
                "activityRegisterAuth":"1,2,3,4",
                "activityReadAuth":"1,2,3,4",
                "activityStatus":"2",
                "top":0,
                "activityMemberCount":190,
                "activityClick":1000,
                "activityDeadline":"2016-11-21 14:00:00"
            },
            {
                "activityId": "3",
                "activityTitle":"西湖音乐节4",
                "activityCover":"http://7xjckn.com2.z0.glb.qiniucdn.com/2016-10-23_580c4c0a71777.jpg",
                "activityContent":"国内人均可支配收入逐年增加，可以投资理财的资金越来越多。人均可支配收入近11%的复合增长",
                "activityDate": "2016-11-11 14:00:00",
                "activityAddress": "浙江省杭州市西湖区太子湾公园",
                "activityFunds":"100",
                "activityHostunit":"杭州新昌商会",
                "activitySponsor":"杭州树德科技赞助",
                "activityRegisterAuth":"2",
                "activityReadAuth":"2",
                "activityStatus":"1",
                "top":0,
                "activityMemberCount":190,
                "activityClick":1000,
                "activityDeadline":"2016-11-21 14:00:00"
            }
        ]
    }
}