{
    "code":0,
    "message":"ok",
    "data":{
        "pager":{
            "page":2,
            "pages":22,
            "total":220,
            "pagesize":10
        },
        "list":[
            {
                "userId": "1",
                "userPhone":"13456535357",
                "userPhoto":"http://www.chuyingfund.com/files/account/headImg/120/2016/20160612131503913_1280x960.jpg",
                "groupIds":"1,2",
                "positionName":"会员",
                "duesStatus":1,
                "memberType":"1",
                "groupName":"金融组,管理组",
                "userIdcard":"330989484948383748",
                "joinTime":"2016-12-12",
                "realName": "马金",
                "registerCompany":"杭州树德科技有限公司",
                "registerPosition":"CCC",
                "city":"浙江省,绍兴市,新昌县",
                "sociatyName":"杭州新昌商会",
                "memberSociatyId":"22",
                "memberUnionId":"10",
                "overdueTime":"2017-12-12"
            },
            {
                "userId": "1",
                "userPhone":"13456535357",
                "userPhoto":"http://www.chuyingfund.com/files/account/headImg/120/2016/20160612131503913_1280x960.jpg",
                "groupIds":"1,2",
                "duesStatus":2,
                "positionName":"会员",
                "memberType":"2",
                "groupName":"金融组,管理组",
                "userIdcard":"330989484948383748",
                "joinTime":"2016-12-12",
                "realName": "马金",
                "registerCompany":"杭州树德科技有限公司",
                "registerPosition":"CCC",
                "city":"浙江省,绍兴市,新昌县",
                "sociatyName":"杭州新昌商会",
                "memberSociatyId":"22",
                "memberUnionId":"10",
                "overdueTime":"2017-12-12"
            },
            {
                "userId": "1",
                "userPhone":"13456535357",
                "userPhoto":"http://www.chuyingfund.com/files/account/headImg/120/2016/20160612131503913_1280x960.jpg",
                "groupIds":"1,2",
                "duesStatus":3,
                "positionName":"会员",
                "memberType":"3",
                "groupName":"金融组,管理组",
                "userIdcard":"330989484948383748",
                "joinTime":"2016-12-12",
                "realName": "马金",
                "registerCompany":"杭州树德科技有限公司",
                "registerPosition":"CCC",
                "city":"浙江省,绍兴市,新昌县",
                "sociatyName":"杭州新昌商会",
                "memberSociatyId":"22",
                "memberUnionId":"10",
                "overdueTime":"2017-12-12"
            },
            {
                "userId": "1",
                "userPhone":"13456535357",
                "userPhoto":"http://www.chuyingfund.com/files/account/headImg/120/2016/20160612131503913_1280x960.jpg",
                "groupIds":"1,2",
                "positionName":"会员",
                "groupName":"金融组,管理组",
                "duesStatus":1,
                "userIdcard":"330989484948383748",
                "joinTime":"2016-12-12",
                "realName": "马金",
                "registerCompany":"杭州树德科技有限公司",
                "registerPosition":"CCC",
                "city":"浙江省,绍兴市,新昌县",
                "sociatyName":"杭州新昌商会",
                "memberSociatyId":"22",
                "memberUnionId":"10",
                "overdueTime":"2017-12-12"
            },
            {
                "userId": "1",
                "userPhone":"13456535357",
                "userPhoto":"http://www.chuyingfund.com/files/account/headImg/120/2016/20160612131503913_1280x960.jpg",
                "groupIds":"1,2",
                "duesStatus":1,
                "groupName":"金融组,管理组",
                "positionName":"会员",
                "userIdcard":"330989484948383748",
                "joinTime":"2016-12-12",
                "city":"浙江省,绍兴市,新昌县",
                "sociatyName":"杭州新昌商会",
                "memberSociatyId":"22",
                "memberUnionId":"10",
                "realName": "马金",

                "registerCompany":"杭州树德科技有限公司",
                "registerPosition":"1",
                "overdueTime":"2017-12-12"
            }

        ]
    }
}