{
    "code":0,
    "message":"ok",
    "data":{
        "pager":{
            "page":2,
            "pages":22,
            "total":220,
            "pagesize":10
        },
        "list":[
            {"userId":"1","userName":"董卓1","role":"0"},
            {"userId":"2","userName":"吕布","role":"0"},
            {"userId":"3","userName":"曹操","role":"1"},
            {"userId":"4","userName":"刘备","role":"0"},
            {"userId":"5","userName":"孙尚香","role":"1"}

        ]
    }
}