{
    "code":0,
    "message":"ok",
    "data":{
        "pager":{
            "page":2,
            "pages":22,
            "total":220,
            "pagesize":10
        },
        "list":[
            {
                "hrefId":"1",
                "href_sociaty_id":"href_sociaty_id",
                "enable":false,
                "hrefName":"简介",
                "hrefAddress":"",
                "hrefIcon":""
            },
            {
                "hrefId":"1",
                "href_sociaty_id":"href_sociaty_id",
                "enable":false,
                "hrefName":"章程",
                "hrefAddress":"",
                "hrefIcon":""
            },
            {
                "hrefId":"1",
                "href_sociaty_id":"href_sociaty_id",
                "enable":false,
                "hrefName":"会费标准",
                "hrefAddress":"",
                "hrefIcon":""
            },
            {
                "hrefId":"1",
                "href_sociaty_id":"href_sociaty_id",
                "enable":false,
                "hrefName":"年度计划",
                "hrefAddress":"",
                "hrefIcon":""
            }


        ]
    }
}