{
    "code": 0,
    "message": "ok",
    "data": {
        "pager": {
            "page": 1,
            "pages": 5,
            "total": 25,
            "pagesize": 5
        },
        "list": [
            {
                "typeCode":"SELECT",
                "property":{
                    "questionId": "1",
                    "questionTypeId": 1,
                    "questionDifficult": 0.93,
                    "questionSubjectId": 1,
                    "questionFrom": "原创",
                    "questionSyllabusArray": ["8","9"],
                    "propertyValue": {
                        "typeName": "单选题",
                        "difficultName": "容易",
                        "subjectName": "数学",
                        "syllabus": [
                            {"syllabusId": 8,"syllabusName": "考纲4"},
                            {"syllabusId": 9,"syllabusName": "考纲5"}
                        ]
                    }
                },
                "question":{
                    "questionId": "1",
                    "questionContentJson" :{
                        "title":"已知函数f(x+1)=3x+2,则f(x)的解析式是（）",
                        "option":["3x+2","3x+1","3x-1","3x+4"]
                    }
                }
            },
            {
                "typeCode":"FILLBLANK",
                "property":{
                    "questionId": "2",
                    "questionTypeId": 2,
                    "questionDifficult": 0.93,
                    "questionSubjectId": 1,
                    "questionFrom": "原创",
                    "questionSyllabusArray": ["8","9"],
                    "propertyValue": {
                        "typeName": "填空题",
                        "difficultName": "容易",
                        "subjectName": "数学",
                        "syllabus": [
                            {"syllabusId": 8,"syllabusName": "考纲4"},
                            {"syllabusId": 9,"syllabusName": "考纲5"}
                        ]
                    }
                },
                "question":{
                    "questionId": "1",
                    "questionContentJson" :{
                        "title":"已知函数f(x+1)=3x+2,则f(x)的解析式是_______"
                    }
                }
            },
            {
                "typeCode":"QANDA",
                "property":{
                    "questionId": "3",
                    "questionTypeId": 3,
                    "questionDifficult": 0.93,
                    "questionSubjectId": 1,
                    "questionFrom": "原创",
                    "questionSyllabusArray": ["8","9"],
                    "propertyValue": {
                        "typeName": "问答题",
                        "difficultName": "容易",
                        "subjectName": "数学",
                        "syllabus": [
                            {"syllabusId": 8,"syllabusName": "考纲4"},
                            {"syllabusId": 9,"syllabusName": "考纲5"}
                        ]
                    }
                },
                "question":{
                    "questionId": "1",
                    "questionContentJson" :{
                        "title":"已知函数f(x+1)=3x+2,则f(x)的解析式是QANDA已知函数f(x+1)=3x+2,则f(x)的解析式是QANDA已知函数f(x+1)=3x+2,则f(x)的解析式是QANDA"
                    }
                }
            },
            {
                "typeCode":"COMPLEX",
                "property":{
                    "questionId": "4",
                    "questionTypeId": 4,
                    "questionDifficult": 0.93,
                    "questionSubjectId": 1,
                    "questionFrom": "原创",
                    "questionSyllabusArray": ["8","9"],
                    "propertyValue": {
                        "typeName": "计算题",
                        "difficultName": "容易",
                        "subjectName": "数学",
                        "syllabus": [
                            {"syllabusId": 8,"syllabusName": "考纲4"},
                            {"syllabusId": 9,"syllabusName": "考纲5"}
                        ]
                    }
                },
                "question":{
                    "questionId": "1",
                    "questionContentJson" :{
                        "title":"已知函数f(x+1)=3x+2,则f(x)的解析式是QANDA已知函数f(x+1)=3x+2,则f(x)的解析式是QANDA已知函数f(x+1)=3x+2,则f(x)的解析式是QANDA",
                        "children":[
                            {
                                "number":1,
                                "typeCode": "SELECT",
                                "question": {
                                    "title":"已知函数f(x+1)=3x+2,则f(x)的解析式是()",
                                    "option":["3x+2","3x+1","3x-1","3x+4"]
                                }
                            },
                            {
                                "number":2,
                                "typeCode": "FILLBLANK",
                                "question": {
                                    "title":"已知函数f(x+1)=3x+2,则f(x)的解析式是_________"
                                }
                            },
                            {
                                "number":3,
                                "typeCode": "QANDA",
                                "question": {
                                    "title":"已知函数f(x+1)=3x+2,则f(x)的解析式是已知函数f(x+1)=3x+2,则f(x)的解析式是"
                                }
                            }
                        ]
                    }
                }
            }
        ]
    }
}